rtl/eightbit.vcd
$date
	Fri Nov 27 00:03:43 2020
$end
$version
	Icarus Verilog
$end
$timescale
	1s
$end
$scope module signed_extension_tb $end
$var wire 32 ! out_sixteen [31:0] $end
$var wire 32 " out_eight [31:0] $end
$var reg 1 # clk $end
$var reg 8 $ eightbit [7:0] $end
$var reg 1 % run $end
$var reg 16 & sixteenbit [15:0] $end
$scope module eight $end
$var wire 8 ' x [7:0] $end
$var wire 32 ( y [31:0] $end
$upscope $end
$scope module sixteen $end
$var wire 16 ) x [15:0] $end
$var wire 32 * y [31:0] $end
$upscope $end
$upscope $end
$enddefinitions $end
#0
$dumpvars
b111111111111101 *
b111111111111101 )
b1111101 (
b1111101 '
b111111111111101 &
0%
b1111101 $
0#
b1111101 "
b111111111111101 !
$end
#10
1%
1#
#20
0#
#30
b111111111111110 !
b111111111111110 *
b111111111111110 &
b111111111111110 )
b1111110 "
b1111110 (
b1111110 $
b1111110 '
1#
#40
0#
#50
b111111111111111 !
b111111111111111 *
b111111111111111 &
b111111111111111 )
b1111111 "
b1111111 (
b1111111 $
b1111111 '
1#
#60
0#
#70
b11111111111111111000000000000000 !
b11111111111111111000000000000000 *
b1000000000000000 &
b1000000000000000 )
b11111111111111111111111110000000 "
b11111111111111111111111110000000 (
b10000000 $
b10000000 '
1#
#80
0#
#90
b11111111111111111000000000000001 !
b11111111111111111000000000000001 *
b1000000000000001 &
b1000000000000001 )
b11111111111111111111111110000001 "
b11111111111111111111111110000001 (
b10000001 $
b10000001 '
1#
#100
0#
#110
b11111111111111111000000000000010 !
b11111111111111111000000000000010 *
b1000000000000010 &
b1000000000000010 )
b11111111111111111111111110000010 "
b11111111111111111111111110000010 (
b10000010 $
b10000010 '
1#
#120
0#
#130
b11111111111111111000000000000011 !
b11111111111111111000000000000011 *
b1000000000000011 &
b1000000000000011 )
b11111111111111111111111110000011 "
b11111111111111111111111110000011 (
b10000011 $
b10000011 '
1#
#140
0#
#150
b11111111111111111000000000000100 !
b11111111111111111000000000000100 *
b1000000000000100 &
b1000000000000100 )
b11111111111111111111111110000100 "
b11111111111111111111111110000100 (
b10000100 $
b10000100 '
1#
#160
0#
#170
b11111111111111111000000000000101 !
b11111111111111111000000000000101 *
b1000000000000101 &
b1000000000000101 )
b11111111111111111111111110000101 "
b11111111111111111111111110000101 (
b10000101 $
b10000101 '
1#
#180
0#
#190
b11111111111111111000000000000110 !
b11111111111111111000000000000110 *
b1000000000000110 &
b1000000000000110 )
b11111111111111111111111110000110 "
b11111111111111111111111110000110 (
b10000110 $
b10000110 '
1#
#200
0#
#210
b11111111111111111000000000000111 !
b11111111111111111000000000000111 *
b1000000000000111 &
b1000000000000111 )
b11111111111111111111111110000111 "
b11111111111111111111111110000111 (
b10000111 $
b10000111 '
1#
#220
0#
#230
b11111111111111111000000000001000 !
b11111111111111111000000000001000 *
b1000000000001000 &
b1000000000001000 )
b11111111111111111111111110001000 "
b11111111111111111111111110001000 (
b10001000 $
b10001000 '
1#
#240
0#
#250
b11111111111111111000000000001001 !
b11111111111111111000000000001001 *
b1000000000001001 &
b1000000000001001 )
b11111111111111111111111110001001 "
b11111111111111111111111110001001 (
b10001001 $
b10001001 '
1#
#260
0#
#270
b11111111111111111000000000001010 !
b11111111111111111000000000001010 *
b1000000000001010 &
b1000000000001010 )
b11111111111111111111111110001010 "
b11111111111111111111111110001010 (
b10001010 $
b10001010 '
1#
#280
0#
#290
b11111111111111111000000000001011 !
b11111111111111111000000000001011 *
b1000000000001011 &
b1000000000001011 )
b11111111111111111111111110001011 "
b11111111111111111111111110001011 (
b10001011 $
b10001011 '
1#
